1.1001000110001110111110000010100001010100000000001010e+03
1.1001100001001000000101111101100001011010111011000000e+03
1.1001111100000001001101111000100001100001110101110101e+03
1.1010010110111010010101110011100001101000110000101011e+03
1.1010110001110011011101101110100001101111101011100001e+03
1.1011001100101100100101101001100001110110100110010110e+03
1.1011100111100101101101100100100001111101100001001100e+03
1.1100000010011110110101011111100010000100011100000010e+03
1.1100011101010111111101011010100010001011010110110111e+03
1.1100111000010001000101010101100010010010010001101101e+03
1.1101010011001010001101010000100010011001001100100010e+03
1.1101101110000011010101001011100010100000000111011000e+03
1.1110001000111100011101000110100010100111000010001110e+03
1.1110100011110101100101000001100010101101111101000011e+03
1.1110111110101110101100111100100010110100110111111001e+03
1.0011001011101011011110001000100111100110110010111001e+04
1.0011011000101000010100000011100000010011111111111010e+04
1.0011100101100101001001111110011001000001001100111011e+04
1.0011110010100001111111111001010001101110011001111100e+04
1.0011111111011110110101110100001010011011100110111101e+04
1.0100001100011011101011101111000011001000110011111101e+04
1.0100011001011000100001101001111011110110000000111110e+04
1.0100100110010101010111100100110100100011001101111111e+04
1.0100110011010010001101011111101101010000011011000000e+04
1.0101000000001111000011011010100101111101101000000001e+04
1.0101001101001011111001010101011110101010110101000001e+04
1.0101011010001000101111010000010111011000000010000010e+04
1.0101100111000101100101001011010000000101001111000011e+04
1.0101110100000010011011000110001000110010011100000100e+04
1.0110000000111111010001000001000001011111101001000101e+04
1.0000000000010101000011110110001111000001000001100101e+05
1.0000000110101011101110010111000100000110110101101010e+05
1.0000001101000010011000110111111001001100101001101111e+05
1.0000010011011001000011011000101110010010011101110100e+05
1.0000011001101111101101111001100011011000010001111000e+05
1.0000100000000110011000011010011000011110000101111101e+05
1.0000100110011101000010111011001101100011111010000010e+05
1.0000101100110011101101011100000010101001101110000111e+05
1.0000110011001010010111111100110111101111100010001011e+05
1.0000111001100001000010011101101100110101010110010000e+05
1.0000111111110111101100111110100001111011001010010101e+05
1.0001000110001110010111011111010111000000111110011010e+05
1.0001001100100101000010000000001100000110110010011110e+05
1.0001010010111011101100100001000001001100100110100011e+05
1.0001011001010010010111000001110110010010011010101000e+05
1.0000000000010101000011110110001111000001000001100101e+05
1.0000000110101011101110010111000100000110110101101010e+05
1.0000001101000010011000110111111001001100101001101111e+05
1.0000010011011001000011011000101110010010011101110100e+05
1.0000011001101111101101111001100011011000010001111000e+05
1.0000100000000110011000011010011000011110000101111101e+05
1.0000100110011101000010111011001101100011111010000010e+05
1.0000101100110011101101011100000010101001101110000111e+05
1.0000110011001010010111111100110111101111100010001011e+05
1.0000111001100001000010011101101100110101010110010000e+05
1.0000111111110111101100111110100001111011001010010101e+05
1.0001000110001110010111011111010111000000111110011010e+05
1.0001001100100101000010000000001100000110110010011110e+05
1.0001010010111011101100100001000001001100100110100011e+05
1.0001011001010010010111000001110110010010011010101000e+05
1.1100101010000011110100000000110111000000010001101101e+05
1.1100110000010111011000111010101010101110001110101000e+05
1.1100110110101010111101110100011110011100001011100011e+05
1.1100111100111110100010101110010010001010001000011110e+05
1.1101000011010010000111101000000101111000000101011001e+05
1.1101001001100101101100100001111001100110000010010100e+05
1.1101001111111001010001011011101101010011111111001111e+05
1.1101010110001100110110010101100001000001111100001010e+05
1.1101011100100000011011001111010100101111111001000101e+05
1.1101100010110100000000001001001000011101110110000000e+05
1.1101101001000111100101000010111100001011110010111011e+05
1.1101101111011011001001111100101111111001101111110110e+05
1.1101110101101110101110110110100011100111101100110001e+05
1.1101111100000010010011110000010111010101101001101100e+05
1.1110000010010101111000101010001011000011100110100111e+05
1.1010111010111001010011000000000110110101001111010010e+06
1.1010111110000010100100011000000101000100101011110110e+06
1.1011000001001011110101110000000011010100001000011010e+06
1.1011000100010101000111001000000001100011100100111110e+06
1.1011000111011110011000011111111111110011000001100010e+06
1.1011001010100111101001110111111110000010011110000111e+06
1.1011001101110000111011001111111100010001111010101011e+06
1.1011010000111010001100100111111010100001010111001111e+06
1.1011010100000011011101111111111000110000110011110011e+06
1.1011010111001100101111010111110111000000010000010111e+06
1.1011011010010110000000101111110101001111101100111100e+06
1.1011011101011111010010000111110011011111001001100000e+06
1.1011100000101000100011011111110001101110100110000100e+06
1.1011100011110001110100110111101111111110000010101000e+06
1.1011100110111011000110001111101110001101011111001100e+06
1.1010000010001000111011100000101100001100001001011000e+07
1.1010000011101101011111010011100001001001111000010111e+07
1.1010000101010010000011000110010110000111100111010101e+07
1.1010000110110110100110111001001011000101010110010100e+07
1.1010001000011011001010101100000000000011000101010010e+07
1.1010001001111111101110011110110101000000110100010001e+07
1.1010001011100100010010010001101001111110100011001111e+07
1.1010001101001000110110000100011110111100010010001110e+07
1.1010001110101101011001110111010011111010000001001100e+07
1.1010010000010001111101101010001000110111110000001011e+07
1.1010010001110110100001011100111101110101011111001001e+07
1.1010010011011011000101001111110010110011001110001000e+07
1.1010010100111111101001000010100111110000111101000110e+07
1.1010010110100100001100110101011100101110101100000101e+07
1.1010011000001000110000101000010001101100011011000011e+07
1.1001100101011011110010101011100100110010000100100010e+08
1.1001100110001110000011111010000110000110100100001101e+08
1.1001100111000000010101001000100111011011000011111001e+08
1.1001100111110010100110010111001000101111100011100100e+08
1.1001101000100100110111100101101010000100000011010000e+08
1.1001101001010111001000110100001011011000100010111011e+08
1.1001101010001001011010000010101100101101000010100111e+08
1.1001101010111011101011010001001110000001100010010010e+08
1.1001101011101101111100011111101111010110000001111101e+08
1.1001101100100000001101101110010000101010100001101001e+08
1.1001101101010010011110111100110001111111000001010100e+08
1.1001101110000100110000001011010011010011100001000000e+08
1.1001101110110111000001011001110100101000000000101011e+08
1.1001101111101001010010101000010101111100100000010111e+08
1.1001110000011011100011110110110111010001000000000010e+08
1.1001010110111111101010101110010000111000001110100100e+09
1.1001010111011000110011001111111001100101101100111101e+09
1.1001010111110001111011110001100010010011001011010110e+09
1.1001011000001011000100010011001011000000101001101111e+09
1.1001011000100100001100110100110011101110001000001000e+09
1.1001011000111101010101010110011100011011100110100001e+09
1.1001011001010110011101111000000101001001000100111010e+09
1.1001011001101111100110011001101101110110100011010011e+09
1.1001011010001000101110111011010110100100000001101011e+09
1.1001011010100001110111011100111111010001100000000100e+09
1.1001011010111010111111111110100111111110111110011101e+09
1.1001011011010100001000100000010000101100011100110110e+09
1.1001011011101101010001000001111001011001111011001111e+09
1.1001011100000110011001100011100010000111011001101000e+09
1.1001011100011111100010000101001010110100111000000001e+09
1.1001001111110000001011000111000111000111100111101001e+10
1.1001001111111100101111010111001101010111011011011111e+10
1.1001010000001001010011100111010011100111001111010100e+10
1.1001010000010101110111110111011001110111000011001010e+10
1.1001010000100010011100000111100000000110110110111111e+10
1.1001010000101111000000010111100110010110101010110101e+10
1.1001010000111011100100100111101100100110011110101010e+10
1.1001010001001000001000110111110010110110010010100000e+10
1.1001010001010100101101000111111001000110000110010101e+10
1.1001010001100001010001010111111111010101111010001011e+10
1.1001010001101101110101101000000101100101101110000000e+10
1.1001010001111010011001111000001011110101100001110110e+10
1.1001010010000110111110001000010010000101010101101011e+10
1.1001010010010011100010011000011000010101001001100001e+10
1.1001010010100000000110101000011110100100111101010110e+10
1.1001001100001000000100000010011111111001110110111110e+11
1.1001001100001110010110001010011101001100010011010111e+11
1.1001001100010100101000010010011010011110101111101111e+11
1.1001001100011010111010011010010111110001001100001000e+11
1.1001001100100001001100100010010101000011101000100001e+11
1.1001001100100111011110101010010010010110000100111001e+11
1.1001001100101101110000110010001111101000100001010010e+11
1.1001001100110100000010111010001100111010111101101011e+11
1.1001001100111010010101000010001010001101011010000011e+11
1.1001001101000000100111001010000111011111110110011100e+11
1.1001001101000110111001010010000100110010010010110100e+11
1.1001001101001101001011011010000010000100101111001101e+11
1.1001001101010011011101100001111111010111001011100110e+11
1.1001001101011001101111101001111100101001100111111110e+11
1.1001001101100000000001110001111001111100000100010111e+11
1.1001001010010011111010101001000000011110111101111110e+12
1.1001001010010111000011101100111110011001001101110011e+12
1.1001001010011010001100110000111100010011011101101001e+12
1.1001001010011101010101110100111010001101101101011110e+12
1.1001001010100000011110111000111000000111111101010100e+12
1.1001001010100011100111111100110110000010001101001001e+12
1.1001001010100110110001000000110011111100011100111111e+12
1.1001001010101001111010000100110001110110101100110100e+12
1.1001001010101101000011001000101111110000111100101001e+12
1.1001001010110000001100001100101101101011001100011111e+12
1.1001001010110011010101010000101011100101011100010100e+12
1.1001001010110110011110010100101001011111101100001010e+12
1.1001001010111001100111011000100111011001111011111111e+12
1.1001001010111100110000011100100101010100001011110101e+12
1.1001001010111111111001100000100011001110011011101010e+12
1.1001001001011001110100011110000110001010100100101010e+13
1.1001001001011011011001000000000101000001110011100111e+13
1.1001001001011100111101100010000011111001000010100011e+13
1.1001001001011110100010000100000010110000010001100000e+13
1.1001001001100000000110100110000001100111100000011100e+13
1.1001001001100001101011001000000000011110101111011001e+13
1.1001001001100011001111101001111111010101111110010101e+13
1.1001001001100100110100001011111110001101001101010010e+13
1.1001001001100110011000101101111101000100011100001111e+13
1.1001001001100111111101001111111011111011101011001011e+13
1.1001001001101001100001110001111010110010111010001000e+13
1.1001001001101011000110010011111001101010001001000100e+13
1.1001001001101100101010110101111000100001011000000001e+13
1.1001001001101110001111010111110111011000100110111101e+13
1.1001001001101111110011111001110110001111110101111010e+13
1.1001001000111100110001000001000011011000010111111100e+14
1.1001001000111101100011010010000010110011010000001110e+14
1.1001001000111110010101100011000010001110001000100000e+14
1.1001001000111111000111110100000001101001000000110010e+14
1.1001001000111111111010000101000001000011111001000100e+14
1.1001001001000000101100010110000000011110110001010101e+14
1.1001001001000001011110100110111111111001101001100111e+14
1.1001001001000010010000110111111111010100100001111001e+14
1.1001001001000011000011001000111110101111011010001011e+14
1.1001001001000011110101011001111110001010010010011101e+14
1.1001001001000100100111101010111101100101001010101110e+14
1.1001001001000101011001111011111101000000000011000000e+14
1.1001001001000110001100001100111100011010111011010010e+14
1.1001001001000110111110011101111011110101110011100100e+14
1.1001001001000111110000101110111011010000101011110110e+14
1.1001001000101110001111001100101000001101011011010111e+15
1.1001001000101110101000010101000111111010110001100110e+15
1.1001001000101111000001011101100111101000000111110101e+15
1.1001001000101111011010100110000111010101011110000100e+15
1.1001001000101111110011101110100111000010110100010011e+15
1.1001001000110000001100110111000110110000001010100010e+15
1.1001001000110000100101111111100110011101100000110001e+15
1.1001001000110000111111001000000110001010110111000000e+15
1.1001001000110001011000010000100101111000001101001111e+15
1.1001001000110001110001011001000101100101100011011110e+15
1.1001001000110010001010100001100101010010111001101101e+15
1.1001001000110010100011101010000101000000001111111100e+15
1.1001001000110010111100110010100100101101100110001011e+15
1.1001001000110011010101111011000100011010111100011010e+15
1.1001001000110011101111000011100100001000010010101001e+15
1.1001001000100110111110010000111100001000100000011111e+16
1.1001001000100111001010110101001011111111001010110111e+16
1.1001001000100111010111011001011011110101110101001111e+16
1.1001001000100111100011111101101011101100011111101000e+16
1.1001001000100111110000100001111011100011001010000000e+16
1.1001001000100111111101000110001011011001110100011000e+16
1.1001001000101000001001101010011011010000011110110000e+16
1.1001001000101000010110001110101011000111001001001001e+16
1.1001001000101000100010110010111010111101110011100001e+16
1.1001001000101000101111010111001010110100011101111001e+16
1.1001001000101000111011111011011010101011001000010001e+16
1.1001001000101001001000011111101010100001110010101010e+16
1.1001001000101001010101000011111010011000011101000010e+16
1.1001001000101001100001101000001010001111000111011010e+16
1.1001001000101001101110001100011010000101110001110010e+16
1.1001001000100011010101110010101110011101110100000000e+17
1.1001001000100011011100000100110110011001001001000110e+17
1.1001001000100011100010010110111110010100011110001100e+17
1.1001001000100011101000101001000110001111110011010010e+17
1.1001001000100011101110111011001110001011001000011000e+17
1.1001001000100011110101001101010110000110011101011111e+17
1.1001001000100011111011011111011110000001110010100101e+17
1.1001001000100100000001110001100101111101000111101011e+17
1.1001001000100100001000000011101101111000011100110001e+17
1.1001001000100100001110010101110101110011110001110111e+17
1.1001001000100100010100100111111101101111000110111110e+17
1.1001001000100100011010111010000101101010011100000100e+17
1.1001001000100100100001001100001101100101110001001010e+17
1.1001001000100100100111011110010101100001000110010000e+17
1.1001001000100100101101110000011101011100011011010110e+17
1.1001001000100001100001100011100001101110010111000000e+18
1.1001001000100001100100101100100101101100000001100010e+18
1.1001001000100001100111110101101001101001101100000101e+18
1.1001001000100001101010111110101101100111010110100111e+18
1.1001001000100001101110000111110001100101000001001001e+18
1.1001001000100001110001010000110101100010101011101100e+18
1.1001001000100001110100011001111001100000010110001110e+18
1.1001001000100001110111100010111101011110000000110001e+18
1.1001001000100001111010101100000001011011101011010011e+18
1.1001001000100001111101110101000101011001010101110101e+18
1.1001001000100010000000111110001001010111000000011000e+18
1.1001001000100010000100000111001101010100101010111010e+18
1.1001001000100010000111010000010001010010010101011100e+18
1.1001001000100010001010011001010101001111111111111111e+18
1.1001001000100010001101100010011001001101101010100001e+18
1.1001001000100000100111011011111001111000000110011101e+19
1.1001001000100000101001000000011011110110111011101110e+19
1.1001001000100000101010100100111101110101110000111111e+19
1.1001001000100000101100001001011111110100100110010000e+19
1.1001001000100000101101101110000001110011011011100001e+19
1.1001001000100000101111010010100011110010010000110010e+19
1.1001001000100000110000110111000101110001000110000011e+19
1.1001001000100000110010011011100111101111111011010100e+19
1.1001001000100000110100000000001001101110110000100101e+19
1.1001001000100000110101100100101011101101100101110110e+19
1.1001001000100000110111001001001101101100011011000111e+19
1.1001001000100000111000101101101111101011010000011000e+19
1.1001001000100000111010010010010001101010000101101001e+19
1.1001001000100000111011110110110011101000111010111010e+19
1.1001001000100000111101011011010101100111110000001011e+19
1.1001001000100000001010011000000101100101010101100111e+20
1.1001001000100000001011001010010110100100110000010000e+20
1.1001001000100000001011111100100111100100001010111000e+20
1.1001001000100000001100101110111000100011100101100001e+20
1.1001001000100000001101100001001001100011000000001001e+20
1.1001001000100000001110010011011010100010011010110010e+20
1.1001001000100000001111000101101011100001110101011010e+20
1.1001001000100000001111110111111100100001010000000011e+20
1.1001001000100000010000101010001101100000101010101011e+20
1.1001001000100000010001011100011110100000000101010100e+20
1.1001001000100000010010001110101111011111011111111100e+20
1.1001001000100000010011000001000000011110111010100101e+20
1.1001001000100000010011110011010001011110010101001101e+20
1.1001001000100000010100100101100010011101101111110110e+20
1.1001001000100000010101010111110011011101001010011110e+20
1.1001001000011111111011110110001011010110000011000011e+21
1.1001001000011111111100001111010011110101110000010111e+21
1.1001001000011111111100101000011100010101011101101011e+21
1.1001001000011111111101000001100100110101001011000000e+21
1.1001001000011111111101011010101101010100111000010100e+21
1.1001001000011111111101110011110101110100100101101000e+21
1.1001001000011111111110001100111110010100010010111100e+21
1.1001001000011111111110100110000110110100000000010001e+21
1.1001001000011111111110111111001111010011101101100101e+21
1.1001001000011111111111011000010111110011011010111001e+21
1.1001001000011111111111110001100000010011001000001101e+21
1.1001001000100000000000001010101000110010110101100010e+21
1.1001001000100000000000100011110001010010100010110110e+21
1.1001001000100000000000111100111001110010010000001010e+21
1.1001001000100000000001010110000010010001111101011110e+21
1.1001001000011111110100100101001110001100111011001110e+22
1.1001001000011111110100110001110010011100110001111000e+22
1.1001001000011111110100111110010110101100101000100010e+22
1.1001001000011111110101001010111010111100011111001100e+22
1.1001001000011111110101010111011111001100010101110110e+22
1.1001001000011111110101100100000011011100001100100000e+22
1.1001001000011111110101110000100111101100000011001010e+22
1.1001001000011111110101111101001011111011111001110101e+22
1.1001001000011111110110001001110000001011110000011111e+22
1.1001001000011111110110010110010100011011100111001001e+22
1.1001001000011111110110100010111000101011011101110011e+22
1.1001001000011111110110101111011100111011010100011101e+22
1.1001001000011111110110111100000001001011001011000111e+22
1.1001001000011111110111001000100101011011000001110001e+22
1.1001001000011111110111010101001001101010111000011011e+22
1.1001001000011111110000111100101111100111111111101011e+23
1.1001001000011111110001000011000001101111111011000000e+23
1.1001001000011111110001001001010011110111110110010101e+23
1.1001001000011111110001001111100101111111110001101010e+23
1.1001001000011111110001010101111000000111101100111111e+23
1.1001001000011111110001011100001010001111101000010100e+23
1.1001001000011111110001100010011100010111100011101001e+23
1.1001001000011111110001101000101110011111011110111111e+23
1.1001001000011111110001101111000000100111011010010100e+23
1.1001001000011111110001110101010010101111010101101001e+23
1.1001001000011111110001111011100100110111010000111110e+23
1.1001001000011111110010000001110110111111001100010011e+23
1.1001001000011111110010001000001001000111000111101000e+23
1.1001001000011111110010001110011011001111000010111101e+23
1.1001001000011111110010010100101101010110111110010010e+23
1.1001001000011111101111001000100000010101011011111111e+24
1.1001001000011111101111001011101001011001011001101010e+24
1.1001001000011111101111001110110010011101010111010100e+24
1.1001001000011111101111010001111011100001010100111111e+24
1.1001001000011111101111010101000100100101010010101001e+24
1.1001001000011111101111011000001101101001010000010100e+24
1.1001001000011111101111011011010110101101001101111110e+24
1.1001001000011111101111011110011111110001001011101001e+24
1.1001001000011111101111100001101000110101001001010100e+24
1.1001001000011111101111100100110001111001000110111110e+24
1.1001001000011111101111100111111010111101000100101001e+24
1.1001001000011111101111101011000100000001000010010011e+24
1.1001001000011111101111101110001101000100111111111110e+24
1.1001001000011111101111110001010110001000111101101000e+24
1.1001001000011111101111110100011111001100111011010011e+24
1.1001001000011111101110001110011000101100001000101011e+25
1.1001001000011111101110001111111101001110000111100000e+25
1.1001001000011111101110010001100001110000000110010101e+25
1.1001001000011111101110010011000110010010000101001011e+25
1.1001001000011111101110010100101010110100000100000000e+25
1.1001001000011111101110010110001111010110000010110101e+25
1.1001001000011111101110010111110011111000000001101011e+25
1.1001001000011111101110011001011000011010000000100000e+25
1.1001001000011111101110011010111100111011111111010101e+25
1.1001001000011111101110011100100001011101111110001011e+25
1.1001001000011111101110011110000101111111111101000000e+25
1.1001001000011111101110011111101010100001111011110101e+25
1.1001001000011111101110100001001111000011111010101011e+25
1.1001001000011111101110100010110011100101111001100000e+25
1.1001001000011111101110100100011000000111111000010101e+25
1.1001001000011111101101110001010100110111011110101001e+26
1.1001001000011111101101110010000111001000011110000100e+26
1.1001001000011111101101110010111001011001011101011110e+26
1.1001001000011111101101110011101011101010011100111001e+26
1.1001001000011111101101110100011101111011011100010100e+26
1.1001001000011111101101110101010000001100011011101110e+26
1.1001001000011111101101110110000010011101011011001001e+26
1.1001001000011111101101110110110100101110011010100100e+26
1.1001001000011111101101110111100110111111011001111110e+26
1.1001001000011111101101111000011001010000011001011001e+26
1.1001001000011111101101111001001011100001011000110011e+26
1.1001001000011111101101111001111101110010011000001110e+26
1.1001001000011111101101111010110000000011010111101001e+26
1.1001001000011111101101111011100010010100010111000011e+26
1.1001001000011111101101111100010100100101010110011110e+26
1.1001001000011111101101100010110010111101001001100011e+27
1.1001001000011111101101100011001100000101101001010000e+27
1.1001001000011111101101100011100101001110001000111101e+27
1.1001001000011111101101100011111110010110101000101011e+27
1.1001001000011111101101100100010111011111001000011000e+27
1.1001001000011111101101100100110000100111101000000101e+27
1.1001001000011111101101100101001001110000000111110011e+27
1.1001001000011111101101100101100010111000100111100000e+27
1.1001001000011111101101100101111100000001000111001101e+27
1.1001001000011111101101100110010101001001100110111011e+27
1.1001001000011111101101100110101110010010000110101000e+27
1.1001001000011111101101100111000111011010100110010101e+27
1.1001001000011111101101100111100000100011000110000011e+27
1.1001001000011111101101100111111001101011100101110000e+27
1.1001001000011111101101101000010010110100000101011101e+27
1.1001001000011111101101011011100001111111111110111101e+28
1.1001001000011111101101011011101110100100001110110100e+28
1.1001001000011111101101011011111011001000011110101011e+28
1.1001001000011111101101011100000111101100101110100001e+28
1.1001001000011111101101011100010100010000111110011000e+28
1.1001001000011111101101011100100000110101001110001111e+28
1.1001001000011111101101011100101101011001011110000101e+28
1.1001001000011111101101011100111001111101101101111100e+28
1.1001001000011111101101011101000110100001111101110011e+28
1.1001001000011111101101011101010011000110001101101001e+28
1.1001001000011111101101011101011111101010011101100000e+28
1.1001001000011111101101011101101100001110101101010111e+28
1.1001001000011111101101011101111000110010111101001101e+28
1.1001001000011111101101011110000101010111001101000100e+28
1.1001001000011111101101011110010001111011011100111011e+28
1.1001001000011111101101010111111001100001011001101011e+29
1.1001001000011111101101010111111111110011100001100110e+29
1.1001001000011111101101011000000110000101101001100001e+29
1.1001001000011111101101011000001100010111110001011101e+29
1.1001001000011111101101011000010010101001111001011000e+29
1.1001001000011111101101011000011000111100000001010011e+29
1.1001001000011111101101011000011111001110001001001111e+29
1.1001001000011111101101011000100101100000010001001010e+29
1.1001001000011111101101011000101011110010011001000101e+29
1.1001001000011111101101011000110010000100100001000001e+29
1.1001001000011111101101011000111000010110101000111100e+29
1.1001001000011111101101011000111110101000110000110111e+29
1.1001001000011111101101011001000100111010111000110011e+29
1.1001001000011111101101011001001011001101000000101110e+29
1.1001001000011111101101011001010001011111001000101001e+29
1.1001001000011111101101010110000101010010000111000001e+30
1.1001001000011111101101010110001000011011001010111111e+30
1.1001001000011111101101010110001011100100001110111101e+30
1.1001001000011111101101010110001110101101010010111010e+30
1.1001001000011111101101010110010001110110010110111000e+30
1.1001001000011111101101010110010100111111011010110110e+30
1.1001001000011111101101010110011000001000011110110011e+30
1.1001001000011111101101010110011011010001100010110001e+30
1.1001001000011111101101010110011110011010100110101111e+30
1.1001001000011111101101010110100001100011101010101100e+30
1.1001001000011111101101010110100100101100101110101010e+30
1.1001001000011111101101010110100111110101110010101000e+30
1.1001001000011111101101010110101010111110110110100101e+30
1.1001001000011111101101010110101110000111111010100011e+30
1.1001001000011111101101010110110001010000111110100001e+30
1.1001001000011111101101010101001011001010011101101100e+31
1.1001001000011111101101010101001100101110111111101011e+31
1.1001001000011111101101010101001110010011100001101010e+31
1.1001001000011111101101010101001111111000000011101001e+31
1.1001001000011111101101010101010001011100100101101000e+31
1.1001001000011111101101010101010011000001000111100111e+31
1.1001001000011111101101010101010100100101101001100110e+31
1.1001001000011111101101010101010110001010001011100101e+31
1.1001001000011111101101010101010111101110101101100011e+31
1.1001001000011111101101010101011001010011001111100010e+31
1.1001001000011111101101010101011010110111110001100001e+31
1.1001001000011111101101010101011100011100010011100000e+31
1.1001001000011111101101010101011110000000110101011111e+31
1.1001001000011111101101010101011111100101010111011110e+31
1.1001001000011111101101010101100001001001111001011101e+31
1.1001001000011111101101010100101110000110101001000010e+32
1.1001001000011111101101010100101110111000111010000001e+32
1.1001001000011111101101010100101111101011001011000001e+32
1.1001001000011111101101010100110000011101011100000000e+32
1.1001001000011111101101010100110001001111101101000000e+32
1.1001001000011111101101010100110010000001111101111111e+32
1.1001001000011111101101010100110010110100001110111111e+32
1.1001001000011111101101010100110011100110011111111110e+32
1.1001001000011111101101010100110100011000110000111101e+32
1.1001001000011111101101010100110101001011000001111101e+32
1.1001001000011111101101010100110101111101010010111100e+32
1.1001001000011111101101010100110110101111100011111100e+32
1.1001001000011111101101010100110111100001110100111011e+32
1.1001001000011111101101010100111000010100000101111011e+32
1.1001001000011111101101010100111001000110010110111010e+32
1.1001001000011111101101010100011111100100101110101101e+33
1.1001001000011111101101010100011111111101110111001101e+33
1.1001001000011111101101010100100000010110111111101101e+33
1.1001001000011111101101010100100000110000001000001100e+33
1.1001001000011111101101010100100001001001010000101100e+33
1.1001001000011111101101010100100001100010011001001100e+33
1.1001001000011111101101010100100001111011100001101011e+33
1.1001001000011111101101010100100010010100101010001011e+33
1.1001001000011111101101010100100010101101110010101011e+33
1.1001001000011111101101010100100011000110111011001010e+33
1.1001001000011111101101010100100011100000000011101010e+33
1.1001001000011111101101010100100011111001001100001010e+33
1.1001001000011111101101010100100100010010010100101001e+33
1.1001001000011111101101010100100100101011011101001001e+33
1.1001001000011111101101010100100101000100100101101001e+33
1.1001001000011111101101010100011000010011110001100010e+34
1.1001001000011111101101010100011000100000010101110010e+34
1.1001001000011111101101010100011000101100111010000010e+34
1.1001001000011111101101010100011000111001011110010010e+34
1.1001001000011111101101010100011001000110000010100010e+34
1.1001001000011111101101010100011001010010100110110010e+34
1.1001001000011111101101010100011001011111001011000010e+34
1.1001001000011111101101010100011001101011101111010010e+34
1.1001001000011111101101010100011001111000010011100001e+34
1.1001001000011111101101010100011010000100110111110001e+34
1.1001001000011111101101010100011010010001011100000001e+34
1.1001001000011111101101010100011010011110000000010001e+34
1.1001001000011111101101010100011010101010100100100001e+34
1.1001001000011111101101010100011010110111001000110001e+34
1.1001001000011111101101010100011011000011101101000001e+34
1.1001001000011111101101010100010100101011010010111101e+35
1.1001001000011111101101010100010100110001100101000101e+35
1.1001001000011111101101010100010100110111110111001101e+35
1.1001001000011111101101010100010100111110001001010101e+35
1.1001001000011111101101010100010101000100011011011101e+35
1.1001001000011111101101010100010101001010101101100101e+35
1.1001001000011111101101010100010101010000111111101101e+35
1.1001001000011111101101010100010101010111010001110101e+35
1.1001001000011111101101010100010101011101100011111100e+35
1.1001001000011111101101010100010101100011110110000100e+35
1.1001001000011111101101010100010101101010001000001100e+35
1.1001001000011111101101010100010101110000011010010100e+35
1.1001001000011111101101010100010101110110101100011100e+35
1.1001001000011111101101010100010101111100111110100100e+35
1.1001001000011111101101010100010110000011010000101100e+35
1.1001001000011111101101010100010010110111000011101010e+36
1.1001001000011111101101010100010010111010001100101110e+36
1.1001001000011111101101010100010010111101010101110010e+36
1.1001001000011111101101010100010011000000011110110110e+36
1.1001001000011111101101010100010011000011100111111010e+36
1.1001001000011111101101010100010011000110110000111110e+36
1.1001001000011111101101010100010011001001111010000010e+36
1.1001001000011111101101010100010011001101000011000110e+36
1.1001001000011111101101010100010011010000001100001010e+36
1.1001001000011111101101010100010011010011010101001110e+36
1.1001001000011111101101010100010011010110011110010010e+36
1.1001001000011111101101010100010011011001100111010110e+36
1.1001001000011111101101010100010011011100110000011010e+36
1.1001001000011111101101010100010011011111111001011110e+36
1.1001001000011111101101010100010011100011000010100010e+36
1.1001001000011111101101010100010001111100111100000001e+37
1.1001001000011111101101010100010001111110100000100011e+37
1.1001001000011111101101010100010010000000000101000101e+37
1.1001001000011111101101010100010010000001101001100111e+37
1.1001001000011111101101010100010010000011001110001001e+37
1.1001001000011111101101010100010010000100110010101011e+37
1.1001001000011111101101010100010010000110010111001101e+37
1.1001001000011111101101010100010010000111111011101111e+37
1.1001001000011111101101010100010010001001100000010001e+37
1.1001001000011111101101010100010010001011000100110011e+37
1.1001001000011111101101010100010010001100101001010101e+37
1.1001001000011111101101010100010010001110001101110111e+37
1.1001001000011111101101010100010010001111110010011001e+37
1.1001001000011111101101010100010010010001010110111011e+37
1.1001001000011111101101010100010010010010111011011101e+37
1.1001001000011111101101010100010001011111111000001101e+38
1.1001001000011111101101010100010001100000101010011110e+38
1.1001001000011111101101010100010001100001011100101111e+38
1.1001001000011111101101010100010001100010001111000000e+38
1.1001001000011111101101010100010001100011000001010001e+38
1.1001001000011111101101010100010001100011110011100010e+38
1.1001001000011111101101010100010001100100100101110011e+38
1.1001001000011111101101010100010001100101011000000100e+38
1.1001001000011111101101010100010001100110001010010101e+38
1.1001001000011111101101010100010001100110111100100110e+38
1.1001001000011111101101010100010001100111101110110111e+38
1.1001001000011111101101010100010001101000100001001000e+38
1.1001001000011111101101010100010001101001010011011001e+38
1.1001001000011111101101010100010001101010000101101010e+38
1.1001001000011111101101010100010001101010110111111011e+38
1.1001001000011111101101010100010001010001010110010010e+39
1.1001001000011111101101010100010001010001101111011011e+39
1.1001001000011111101101010100010001010010001000100011e+39
1.1001001000011111101101010100010001010010100001101100e+39
1.1001001000011111101101010100010001010010111010110100e+39
1.1001001000011111101101010100010001010011010011111101e+39
1.1001001000011111101101010100010001010011101101000101e+39
1.1001001000011111101101010100010001010100000110001110e+39
1.1001001000011111101101010100010001010100011111010110e+39
1.1001001000011111101101010100010001010100111000011111e+39
1.1001001000011111101101010100010001010101010001100111e+39
1.1001001000011111101101010100010001010101101010110000e+39
1.1001001000011111101101010100010001010110000011111000e+39
1.1001001000011111101101010100010001010110011101000001e+39
1.1001001000011111101101010100010001010110110110001001e+39
1.1001001000011111101101010100010001001010000101010101e+40
1.1001001000011111101101010100010001001010010001111001e+40
1.1001001000011111101101010100010001001010011110011101e+40
1.1001001000011111101101010100010001001010101011000010e+40
1.1001001000011111101101010100010001001010110111100110e+40
1.1001001000011111101101010100010001001011000100001010e+40
1.1001001000011111101101010100010001001011010000101110e+40
1.1001001000011111101101010100010001001011011101010011e+40
1.1001001000011111101101010100010001001011101001110111e+40
1.1001001000011111101101010100010001001011110110011011e+40
1.1001001000011111101101010100010001001100000010111111e+40
1.1001001000011111101101010100010001001100001111100100e+40
1.1001001000011111101101010100010001001100011100001000e+40
1.1001001000011111101101010100010001001100101000101100e+40
1.1001001000011111101101010100010001001100110101010000e+40
1.1001001000011111101101010100010001000110011100110111e+41
1.1001001000011111101101010100010001000110100011001001e+41
1.1001001000011111101101010100010001000110101001011011e+41
1.1001001000011111101101010100010001000110101111101101e+41
1.1001001000011111101101010100010001000110110101111111e+41
1.1001001000011111101101010100010001000110111100010001e+41
1.1001001000011111101101010100010001000111000010100011e+41
1.1001001000011111101101010100010001000111001000110110e+41
1.1001001000011111101101010100010001000111001111001000e+41
1.1001001000011111101101010100010001000111010101011010e+41
1.1001001000011111101101010100010001000111011011101100e+41
1.1001001000011111101101010100010001000111100001111110e+41
1.1001001000011111101101010100010001000111101000010000e+41
1.1001001000011111101101010100010001000111101110100010e+41
1.1001001000011111101101010100010001000111110100110100e+41
1.1001001000011111101101010100010001000100101000101000e+42
1.1001001000011111101101010100010001000100101011110001e+42
1.1001001000011111101101010100010001000100101110111010e+42
1.1001001000011111101101010100010001000100110010000011e+42
1.1001001000011111101101010100010001000100110101001100e+42
1.1001001000011111101101010100010001000100111000010101e+42
1.1001001000011111101101010100010001000100111011011110e+42
1.1001001000011111101101010100010001000100111110100111e+42
1.1001001000011111101101010100010001000101000001110000e+42
1.1001001000011111101101010100010001000101000100111001e+42
1.1001001000011111101101010100010001000101001000000010e+42
1.1001001000011111101101010100010001000101001011001011e+42
1.1001001000011111101101010100010001000101001110010100e+42
1.1001001000011111101101010100010001000101010001011101e+42
1.1001001000011111101101010100010001000101010100100110e+42
1.1001001000011111101101010100010001000011101110011111e+43
1.1001001000011111101101010100010001000011110000000100e+43
1.1001001000011111101101010100010001000011110001101000e+43
1.1001001000011111101101010100010001000011110011001101e+43
1.1001001000011111101101010100010001000011110100110001e+43
1.1001001000011111101101010100010001000011110110010110e+43
1.1001001000011111101101010100010001000011110111111010e+43
1.1001001000011111101101010100010001000011111001011111e+43
1.1001001000011111101101010100010001000011111011000100e+43
1.1001001000011111101101010100010001000011111100101000e+43
1.1001001000011111101101010100010001000011111110001101e+43
1.1001001000011111101101010100010001000011111111110001e+43
1.1001001000011111101101010100010001000100000001010110e+43
1.1001001000011111101101010100010001000100000010111010e+43
1.1001001000011111101101010100010001000100000100011111e+43
1.1001001000011111101101010100010001000011010001011100e+44
1.1001001000011111101101010100010001000011010010001110e+44
1.1001001000011111101101010100010001000011010011000000e+44
1.1001001000011111101101010100010001000011010011110011e+44
1.1001001000011111101101010100010001000011010100100101e+44
1.1001001000011111101101010100010001000011010101010111e+44
1.1001001000011111101101010100010001000011010110001001e+44
1.1001001000011111101101010100010001000011010110111100e+44
1.1001001000011111101101010100010001000011010111101110e+44
1.1001001000011111101101010100010001000011011000100000e+44
1.1001001000011111101101010100010001000011011001010010e+44
1.1001001000011111101101010100010001000011011010000101e+44
1.1001001000011111101101010100010001000011011010110111e+44
1.1001001000011111101101010100010001000011011011101001e+44
1.1001001000011111101101010100010001000011011100011011e+44
1.1001001000011111101101010100010001000011000010111010e+45
1.1001001000011111101101010100010001000011000011010011e+45
1.1001001000011111101101010100010001000011000011101100e+45
1.1001001000011111101101010100010001000011000100000101e+45
1.1001001000011111101101010100010001000011000100011110e+45
1.1001001000011111101101010100010001000011000100110111e+45
1.1001001000011111101101010100010001000011000101010000e+45
1.1001001000011111101101010100010001000011000101101010e+45
1.1001001000011111101101010100010001000011000110000011e+45
1.1001001000011111101101010100010001000011000110011100e+45
1.1001001000011111101101010100010001000011000110110101e+45
1.1001001000011111101101010100010001000011000111001110e+45
1.1001001000011111101101010100010001000011000111100111e+45
1.1001001000011111101101010100010001000011001000000000e+45
1.1001001000011111101101010100010001000011001000011001e+45
1.1001001000011111101101010100010001000010111011101001e+46
1.1001001000011111101101010100010001000010111011110110e+46
1.1001001000011111101101010100010001000010111100000010e+46
1.1001001000011111101101010100010001000010111100001111e+46
1.1001001000011111101101010100010001000010111100011011e+46
1.1001001000011111101101010100010001000010111100101000e+46
1.1001001000011111101101010100010001000010111100110100e+46
1.1001001000011111101101010100010001000010111101000001e+46
1.1001001000011111101101010100010001000010111101001110e+46
1.1001001000011111101101010100010001000010111101011010e+46
1.1001001000011111101101010100010001000010111101100111e+46
1.1001001000011111101101010100010001000010111101110011e+46
1.1001001000011111101101010100010001000010111110000000e+46
1.1001001000011111101101010100010001000010111110001100e+46
1.1001001000011111101101010100010001000010111110011001e+46
1.1001001000011111101101010100010001000010111000000000e+47
1.1001001000011111101101010100010001000010111000000110e+47
1.1001001000011111101101010100010001000010111000001100e+47
1.1001001000011111101101010100010001000010111000010011e+47
1.1001001000011111101101010100010001000010111000011001e+47
1.1001001000011111101101010100010001000010111000011111e+47
1.1001001000011111101101010100010001000010111000100110e+47
1.1001001000011111101101010100010001000010111000101100e+47
1.1001001000011111101101010100010001000010111000110010e+47
1.1001001000011111101101010100010001000010111000111001e+47
1.1001001000011111101101010100010001000010111000111111e+47
1.1001001000011111101101010100010001000010111001000101e+47
1.1001001000011111101101010100010001000010111001001100e+47
1.1001001000011111101101010100010001000010111001010010e+47
1.1001001000011111101101010100010001000010111001011000e+47
1.1001001000011111101101010100010001000010110110001100e+48
1.1001001000011111101101010100010001000010110110001111e+48
1.1001001000011111101101010100010001000010110110010010e+48
1.1001001000011111101101010100010001000010110110010101e+48
1.1001001000011111101101010100010001000010110110011000e+48
1.1001001000011111101101010100010001000010110110011100e+48
1.1001001000011111101101010100010001000010110110011111e+48
1.1001001000011111101101010100010001000010110110100010e+48
1.1001001000011111101101010100010001000010110110100101e+48
1.1001001000011111101101010100010001000010110110101000e+48
1.1001001000011111101101010100010001000010110110101100e+48
1.1001001000011111101101010100010001000010110110101111e+48
1.1001001000011111101101010100010001000010110110110010e+48
1.1001001000011111101101010100010001000010110110110101e+48
1.1001001000011111101101010100010001000010110110111000e+48