1.1010000111100101010100101001111100100011101111100100e+02
1.1010001101110110000100101010111010111100000010100000e+02
1.1010010100000110110100101011111001010100010101011101e+02
1.1010011010010111100100101100110111101100101000011001e+02
1.1010100000101000010100101101110110000100111011010101e+02
1.1010100110111001000100101110110100011101001110010010e+02
1.1010101101001001110100101111110010110101100001001110e+02
1.1010110011011010100100110000110001001101110100001010e+02
1.1010111001101011010100110001101111100110000111000111e+02
1.1010111111111100000100110010101101111110011010000011e+02
1.1011000110001100110100110011101100010110101100111111e+02
1.1011001100011101100100110100101010101110111111111100e+02
1.1011010010101110010100110101101001000111010010111000e+02
1.1011011000111111000100110110100111011111100101110100e+02
1.1011011111001111110100110111100101110111111000110001e+02
1.1011100101100000100100111000100100010000001011101101e+02
1.1011101011110001010100111001100010101000011110101001e+02
1.1011110010000010000100111010100001000000110001100110e+02
1.1011111000010010110100111011011111011001000100100010e+02
1.1011111110100011100100111100011101110001010111011110e+02
1.1100000100110100010100111101011100001001101010011011e+02
1.1100001011000101000100111110011010100001111101010111e+02
1.1100010001010101110100111111011000111010010000010011e+02
1.1100010111100110100101000000010111010010100011010000e+02
1.1100011101110111010101000001010101101010110110001100e+02
1.1100100100001000000101000010010100000011001001001000e+02
1.1100101010011000110101000011010010011011011100000101e+02
1.1100110000101001100101000100010000110011101111000001e+02
1.1100110110111010010101000101001111001100000001111101e+02
1.1100111101001011000101000110001101100100010100111010e+02
1.1101000011011011110101000111001011111100100111110110e+02
1.1101001001101100100101001000001010010100111010110011e+02
1.1101001111111101010101001001001000101101001101101111e+02
1.1101010110001110000101001010000111000101100000101011e+02
1.1101011100011110110101001011000101011101110011101000e+02
1.1101100010101111100101001100000011110110000110100100e+02
1.1101101001000000010101001101000010001110011001100000e+02
1.1101101111010001000101001110000000100110101100011101e+02
1.1101110101100001110101001110111110111110111111011001e+02
1.1101111011110010100101001111111101010111010010010101e+02
1.1110000010000011010101010000111011101111100101010010e+02
1.1110001000010100000101010001111010000111111000001110e+02
1.1110001110100100110101010010111000100000001011001010e+02
1.1110010100110101100101010011110110111000011110000111e+02
1.1110011011000110010101010100110101010000110001000011e+02
1.1110100001010111000101010101110011101001000011111111e+02
1.1110100111100111110101010110110010000001010110111100e+02
1.1110101101111000100101010111110000011001101001111000e+02
1.1110110100001001010101011000101110110001111100110100e+02
1.1110111010011010000101011001101101001010001111110001e+02
1.1111000000101010110101011010101011100010100010101101e+02
1.1111000110111011100101011011101001111010110101101001e+02
1.1111001101001100010101011100101000010011001000100110e+02
1.1111010011011101000101011101100110101011011011100010e+02
1.1111011001101101110101011110100101000011101110011110e+02
1.1111011111111110100101011111100011011100000001011011e+02
1.1111100110001111010101100000100001110100010100010111e+02
1.1111101100100000000101100001100000001100100111010011e+02
1.1111110010110000110101100010011110100100111010010000e+02
1.1111111001000001100101100011011100111101001101001100e+02
1.1111111111010010010101100100011011010101100000001000e+02
1.0000000010110001100010110010101100110110111001100010e+03
1.0000000101111001111010110011001100000011000011000000e+03
1.0000001001000010010010110011101011001111001100011111e+03
1.0000001100001010101010110100001010011011010101111101e+03
1.0000001111010011000010110100101001100111011111011011e+03
1.0000010010011011011010110101001000110011101000111001e+03
1.0000010101100011110010110101100111111111110010010111e+03
1.0000011000101100001010110110000111001011111011110101e+03
1.0000011011110100100010110110100110011000000101010100e+03
1.0000011110111100111010110111000101100100001110110010e+03
1.0000100010000101010010110111100100110000011000010000e+03
1.0000100101001101101010111000000011111100100001101110e+03
1.0000101000010110000010111000100011001000101011001100e+03
1.0000101011011110011010111001000010010100110100101010e+03
1.0000101110100110110010111001100001100000111110001001e+03
1.0000110001101111001010111010000000101101000111100111e+03
1.0000110100110111100010111010011111111001010001000101e+03
1.0000110111111111111010111010111111000101011010100011e+03
1.0000111011001000010010111011011110010001100100000001e+03
1.0000111110010000101010111011111101011101101101011111e+03
1.0001000001011001000010111100011100101001110110111110e+03
1.0001000100100001011010111100111011110110000000011100e+03
1.0001000111101001110010111101011011000010001001111010e+03
1.0001001010110010001010111101111010001110010011011000e+03
1.0001001101111010100010111110011001011010011100110110e+03
1.0001010001000010111010111110111000100110100110010100e+03
1.0001010100001011010010111111010111110010101111110011e+03
1.0001010111010011101010111111110110111110111001010001e+03
1.0001011010011100000011000000010110001011000010101111e+03
1.0001011101100100011011000000110101010111001100001101e+03
1.0001100000101100110011000001010100100011010101101011e+03
1.0001100011110101001011000001110011101111011111001001e+03
1.0001100110111101100011000010010010111011101000101000e+03
1.0001101010000101111011000010110010000111110010000110e+03
1.0001101101001110010011000011010001010011111011100100e+03
1.0001110000010110101011000011110000100000000101000010e+03
1.0001110011011111000011000100001111101100001110100000e+03
1.0001110110100111011011000100101110111000010111111111e+03
1.0001111001101111110011000101001110000100100001011101e+03
1.0001111100111000001011000101101101010000101010111011e+03
1.0010000000000000100011000110001100011100110100011001e+03
1.0010000011001000111011000110101011101000111101110111e+03
1.0010000110010001010011000111001010110101000111010101e+03
1.0010001001011001101011000111101010000001010000110100e+03
1.0010001100100010000011001000001001001101011010010010e+03
1.0010001111101010011011001000101000011001100011110000e+03
1.0010010010110010110011001001000111100101101101001110e+03
1.0010010101111011001011001001100110110001110110101100e+03
1.0010011001000011100011001010000101111110000000001010e+03
1.0010011100001011111011001010100101001010001001101001e+03
1.0010011111010100010011001011000100010110010011000111e+03
1.0010100010011100101011001011100011100010011100100101e+03
1.0010100101100101000011001100000010101110100110000011e+03
1.0010101000101101011011001100100001111010101111100001e+03
1.0010101011110101110011001101000001000110111000111111e+03
1.0010101110111110001011001101100000010011000010011110e+03
1.0010110010000110100011001101111111011111001011111100e+03
1.0010110101001110111011001110011110101011010101011010e+03
1.0010111000010111010011001110111101110111011110111000e+03
1.0010111011011111101011001111011101000011101000010110e+03
1.0010111110101000000011001111111100001111110001110100e+03
1.0011000001110000011011010000011011011011111011010011e+03
1.0011000100111000110011010000111010101000000100110001e+03
1.0011001000000001001011010001011001110100001110001111e+03
1.0011001011001001100011010001111001000000010111101101e+03
1.0011001110010001111011010010011000001100100001001011e+03
1.0011110100011010100100011001111111101111100111011100e+03
1.0011110111011010110101100001001000000110100100001111e+03
1.0011111010011011000110101000010000011101100001000010e+03
1.0011111101011011010111101111011000110100011101110100e+03
1.0100000000011011101000110110100001001011011010100111e+03
1.0100000011011011111001111101101001100010010111011010e+03
1.0100000110011100001011000100110001111001010100001101e+03
1.0100001001011100011100001011111010010000010000111111e+03
1.0100001100011100101101010011000010100111001101110010e+03
1.0100001111011100111110011010001010111110001010100101e+03
1.0100010010011101001111100001010011010101000111011000e+03
1.0100010101011101100000101000011011101100000100001010e+03
1.0100011000011101110001101111100100000011000000111101e+03
1.0100011011011110000010110110101100011001111101110000e+03
1.0100011110011110010011111101110100110000111010100011e+03
1.0100100001011110100101000100111101000111110111010101e+03
1.0100100100011110110110001100000101011110110100001000e+03
1.0100100111011111000111010011001101110101110000111011e+03
1.0100101010011111011000011010010110001100101101101101e+03
1.0100101101011111101001100001011110100011101010100000e+03
1.0100110000011111111010101000100110111010100111010011e+03
1.0100110011100000001011101111101111010001100100000110e+03
1.0100110110100000011100110110110111101000100000111000e+03
1.0100111001100000101101111101111111111111011101101011e+03
1.0100111100100000111111000101001000010110011010011110e+03
1.0100111111100001010000001100010000101101010111010001e+03
1.0101000010100001100001010011011001000100010100000011e+03
1.0101000101100001110010011010100001011011010000110110e+03
1.0101001000100010000011100001101001110010001101101001e+03
1.0101001011100010010100101000110010001001001010011100e+03
1.0101001110100010100101101111111010100000000111001110e+03
1.0101010001100010110110110111000010110111000100000001e+03
1.0101010100100011000111111110001011001110000000110100e+03
1.0101010111100011011001000101010011100100111101100110e+03
1.0101011010100011101010001100011011111011111010011001e+03
1.0101011101100011111011010011100100010010110111001100e+03
1.0101100000100100001100011010101100101001110011111111e+03
1.0101100011100100011101100001110101000000110000110001e+03
1.0101100110100100101110101000111101010111101101100100e+03
1.0101101001100100111111110000000101101110101010010111e+03
1.0101101100100101010000110111001110000101100111001010e+03
1.0101101111100101100001111110010110011100100011111100e+03
1.0101110010100101110011000101011110110011100000101111e+03
1.0101110101100110000100001100100111001010011101100010e+03
1.0101111000100110010101010011101111100001011010010101e+03
1.0101111011100110100110011010110111111000010111000111e+03
1.0101111110100110110111100010000000001111010011111010e+03
1.0110000001100111001000101001001000100110010000101101e+03
1.0110000100100111011001110000010000111101001101011111e+03
1.0110000111100111101010110111011001010100001010010010e+03
1.0110001010100111111011111110100001101011000111000101e+03
1.0110001101101000001101000101101010000010000011111000e+03
1.0110010000101000011110001100110010011001000000101010e+03
1.0110010011101000101111010011111010101111111101011101e+03
1.0110010110101001000000011011000011000110111010010000e+03
1.0110011001101001010001100010001011011101110111000011e+03
1.0110011100101001100010101001010011110100110011110101e+03
1.0110011111101001110011110000011100001011110000101000e+03
1.0110100010101010000100110111100100100010101101011011e+03
1.0110100101101010010101111110101100111001101010001110e+03
1.0110101000101010100111000101110101010000100111000000e+03
1.0110101011101010111000001100111101100111100011110011e+03
1.0110101110101011001001010100000101111110100000100110e+03
1.0110110001101011011010011011001110010101011101011001e+03
1.0110110100101011101011100010010110101100011010001011e+03
1.0110110111101011111100101001011111000011010110111110e+03
1.0110111010101100001101110000100111011010010011110001e+03
1.0110111101101100011110110111101111110001010000100011e+03
1.0111000000101100101111111110111000001000001101010110e+03
1.0111000011101101000001000110000000011111001010001001e+03
1.0111000110101101010010001101001000110110000110111100e+03
1.0111001001101101100011010100010001001101000011101110e+03
1.0111001100101101110100011011011001100100000000100001e+03
1.0111001111101110000101100010100001111010111101010100e+03
1.0111010010101110010110101001101010010001111010000111e+03
1.0111010101101110100111110000110010101000110110111001e+03
1.0111011000101110111000110111111010111111110011101100e+03
1.0111011011101111001001111111000011010110110000011111e+03
1.0111011110101111011011000110001011101101101101010010e+03
1.0111100001101111101100001101010100000100101010000100e+03
1.0111100100101111111101010100011100011011100110110111e+03
1.0111100111110000001110011011100100110010100011101010e+03
1.0111101010110000011111100010101101001001100000011100e+03
1.0111101101110000110000101001110101100000011101001111e+03
1.0111110000110001000001110000111101110111011010000010e+03
1.0111110011110001010010111000000110001110010110110101e+03
1.0111110110110001100011111111001110100101010011100111e+03
1.0111111001110001110101000110010110111100010000011010e+03
1.0111111100110010000110001101011111010011001101001101e+03
1.0111111111110010010111010100100111101010001010000000e+03
1.1000000010110010101000011011110000000001000110110010e+03
1.1000000101110010111001100010111000011000000011100101e+03
1.1000001000110011001010101010000000101111000000011000e+03
1.1000001011110011011011110001001001000101111101001011e+03
1.1000001110110011101100111000010001011100111001111101e+03
1.1000010001110011111101111111011001110011110110110000e+03
1.1000010100110100001111000110100010001010110011100011e+03
1.1000010111110100100000001101101010100001110000010101e+03
1.1000011010110100110001010100110010111000101101001000e+03
1.1000011101110101000010011011111011001111101001111011e+03
1.1000100000110101010011100011000011100110100110101110e+03
1.1000100011110101100100101010001011111101100011100000e+03
1.1000100110110101110101110001010100010100100000010011e+03
1.1000101001110110000110111000011100101011011101000110e+03
1.1000101100110110010111111111100101000010011001111001e+03
1.1000101111110110101001000110101101011001010110101011e+03
1.1000110010110110111010001101110101110000010011011110e+03
1.1000110101110111001011010100111110000111010000010001e+03
1.1000111000110111011100011100000110011110001101000100e+03
1.1000111011110111101101100011001110110101001001110110e+03
1.1000111110110111111110101010010111001100000110101001e+03
1.1001000001111000001111110001011111100011000011011100e+03
1.1001000100111000100000111000100111111010000000001110e+03
1.1001000111111000110001111111110000010000111101000001e+03
1.1001001010111001000011000110111000100111111001110100e+03
1.1001001101111001010100001110000000111110110110100111e+03
1.1001010000111001100101010101001001010101110011011001e+03
1.1001010011111001110110011100010001101100110000001100e+03
1.1001010110111010000111100011011010000011101100111111e+03
1.1001011001111010011000101010100010011010101001110010e+03
1.1001011100111010101001110001101010110001100110100100e+03
1.1001011111111010111010111000110011001000100011010111e+03
1.1001100010111011001011111111111011011111100000001010e+03
1.1001100101111011011101000111000011110110011100111101e+03
1.1001101000111011101110001110001100001101011001101111e+03
1.1001101011111011111111010101010100100100010110100010e+03
1.1001101110111100010000011100011100111011010011010101e+03
1.1010010100111001110110100111000111100010001100010011e+03
1.1010010111110111001011101010101001110010001000011111e+03
1.1010011010110100100000101110001100000010000100101011e+03
1.1010011101110001110101110001101110010010000000110110e+03
1.1010100000101111001010110101010000100001111101000010e+03
1.1010100011101100011111111000110010110001111001001110e+03
1.1010100110101001110100111100010101000001110101011001e+03
1.1010101001100111001001111111110111010001110001100101e+03
1.1010101100100100011111000011011001100001101101110001e+03
1.1010101111100001110100000110111011110001101001111101e+03
1.1010110010011111001001001010011110000001100110001000e+03
1.1010110101011100011110001110000000010001100010010100e+03
1.1010111000011001110011010001100010100001011110100000e+03
1.1010111011010111001000010101000100110001011010101011e+03
1.1010111110010100011101011000100111000001010110110111e+03
1.1011000001010001110010011100001001010001010011000011e+03
1.1011000100001111000111011111101011100001001111001110e+03
1.1011000111001100011100100011001101110001001011011010e+03
1.1011001010001001110001100110110000000001000111100110e+03
1.1011001101000111000110101010010010010001000011110010e+03
1.1011010000000100011011101101110100100000111111111101e+03
1.1011010011000001110000110001010110110000111100001001e+03
1.1011010101111111000101110100111001000000111000010101e+03
1.1011011000111100011010111000011011010000110100100000e+03
1.1011011011111001101111111011111101100000110000101100e+03
1.1011011110110111000100111111011111110000101100111000e+03
1.1011100001110100011010000011000010000000101001000011e+03
1.1011100100110001101111000110100100010000100101001111e+03
1.1011100111101111000100001010000110100000100001011011e+03
1.1011101010101100011001001101101000110000011101100111e+03
1.1011101101101001101110010001001011000000011001110010e+03
1.1011110000100111000011010100101101010000010101111110e+03
1.1011110011100100011000011000001111100000010010001010e+03
1.1011110110100001101101011011110001110000001110010101e+03
1.1011111001011111000010011111010100000000001010100001e+03
1.1011111100011100010111100010110110010000000110101101e+03
1.1011111111011001101100100110011000100000000010111001e+03
1.1100000010010111000001101001111010101111111111000100e+03
1.1100000101010100010110101101011100111111111011010000e+03
1.1100001000010001101011110000111111001111110111011100e+03
1.1100001011001111000000110100100001011111110011100111e+03
1.1100001110001100010101111000000011101111101111110011e+03
1.1100010001001001101010111011100101111111101011111111e+03
1.1100010100000110111111111111001000001111101000001010e+03
1.1100010111000100010101000010101010011111100100010110e+03
1.1100011010000001101010000110001100101111100000100010e+03
1.1100011100111110111111001001101110111111011100101110e+03
1.1100011111111100010100001101010001001111011000111001e+03
1.1100100010111001101001010000110011011111010101000101e+03
1.1100100101110110111110010100010101101111010001010001e+03
1.1100101000110100010011010111110111111111001101011100e+03
1.1100101011110001101000011011011010001111001001101000e+03
1.1100101110101110111101011110111100011111000101110100e+03
1.1100110001101100010010100010011110101111000001111111e+03
1.1100110100101001100111100110000000111110111110001011e+03
1.1100110111100110111100101001100011001110111010010111e+03
1.1100111010100100010001101101000101011110110110100011e+03
1.1100111101100001100110110000100111101110110010101110e+03
1.1101000000011110111011110100001001111110101110111010e+03
1.1101000011011100010000110111101100001110101011000110e+03
1.1101000110011001100101111011001110011110100111010001e+03
1.1101001001010110111010111110110000101110100011011101e+03
1.1101001100010100010000000010010010111110011111101001e+03
1.1101001111010001100101000101110101001110011011110101e+03
1.1101010010001110111010001001010111011110011000000000e+03
1.1101010101001100001111001100111001101110010100001100e+03
1.1101011000001001100100010000011011111110010000011000e+03
1.1101011011000110111001010011111110001110001100100011e+03
1.1101011110000100001110010111100000011110001000101111e+03
1.1101100001000001100011011011000010101110000100111011e+03
1.1101100011111110111000011110100100111110000001000110e+03
1.1101100110111100001101100010000111001101111101010010e+03
1.1101101001111001100010100101101001011101111001011110e+03
1.1101101100110110110111101001001011101101110101101010e+03
1.1101101111110100001100101100101101111101110001110101e+03
1.1101110010110001100001110000010000001101101110000001e+03
1.1101110101101110110110110011110010011101101010001101e+03
1.1101111000101100001011110111010100101101100110011000e+03
1.1101111011101001100000111010110110111101100010100100e+03
1.1101111110100110110101111110011001001101011110110000e+03
1.1110000001100100001011000001111011011101011010111011e+03
1.1110000100100001100000000101011101101101010111000111e+03
1.1110000111011110110101001000111111111101010011010011e+03
1.1110001010011100001010001100100010001101001111011111e+03
1.1110001101011001011111010000000100011101001011101010e+03
1.1110010000010110110100010011100110101101000111110110e+03
1.1110010011010100001001010111001000111101000100000010e+03
1.1110010110010001011110011010101011001101000000001101e+03
1.1110011001001110110011011110001101011100111100011001e+03
1.1110011100001100001000100001101111101100111000100101e+03
1.1110011111001001011101100101010001111100110100110000e+03
1.1110100010000110110010101000110100001100110000111100e+03
1.1110100101000100000111101100010110011100101101001000e+03
1.1110101000000001011100101111111000101100101001010100e+03
1.1110101010111110110001110011011010111100100101011111e+03
1.1110101101111100000110110110111101001100100001101011e+03
1.1110110000111001011011111010011111011100011101110111e+03
1.1110110011110110110000111110000001101100011010000010e+03
1.1110110110110100000110000001100011111100010110001110e+03
1.1110111001110001011011000101000110001100010010011010e+03
1.1110111100101110110000001000101000011100001110100110e+03
1.1110111111101100000101001100001010101100001010110001e+03
1.1111000010101001011010001111101100111100000110111101e+03
1.1111000101100110101111010011001111001100000011001001e+03
1.1111001000100100000100010110110001011011111111010100e+03
1.1111001011100001011001011010010011101011111011100000e+03
1.1111001110011110101110011101110101111011110111101100e+03
1.1111010001011100000011100001011000001011110011110111e+03
1.1111010100011001011000100100111010011011110000000011e+03
1.1111010111010110101101101000011100101011101100001111e+03
1.1111011010010100000010101011111110111011101000011011e+03
1.1111011101010001010111101111100001001011100100100110e+03
1.1111100000001110101100110011000011011011100000110010e+03
1.1111100011001100000001110110100101101011011100111110e+03
1.1111100110001001010110111010000111111011011001001001e+03
1.1111101001000110101011111101101010001011010101010101e+03
1.1111101100000100000001000001001100011011010001100001e+03
1.1111101111000001010110000100101110101011001101101100e+03
1.1111110001111110101011001000010000111011001001111000e+03
1.1111110100111100000000001011110011001011000110000100e+03
1.1111110111111001010101001111010101011011000010010000e+03
1.1111111010110110101010010010110111101010111110011011e+03
1.1111111101110011111111010110011001111010111010100111e+03
1.0000000000011000101010001100111110000101011011011001e+04
1.0000000001110111010100101110101111001101011001011111e+04
1.0000000011010101111111010000100000010101010111100101e+04
1.0000000100110100101001110010010001011101010101101011e+04
1.0000010111110001010001001000110000011010000001010010e+04
1.0000011001001111001101111101011110001110101110110100e+04
1.0000011010101101001010110010001100000011011100010110e+04
1.0000011100001011000111100110111001111000001001111000e+04
1.0000011101101001000100011011100111101100110111011001e+04
1.0000011111000111000001010000010101100001100100111011e+04
1.0000100000100100111110000101000011010110010010011101e+04
1.0000100010000010111010111001110001001010111111111111e+04
1.0000100011100000110111101110011110111111101101100001e+04
1.0000100100111110110100100011001100110100011011000010e+04
1.0000100110011100110001010111111010101001001000100100e+04
1.0000100111111010101110001100101000011101110110000110e+04
1.0000101001011000101011000001010110010010100011101000e+04
1.0000101010110110100111110110000100000111010001001010e+04
1.0000101100010100100100101010110001111011111110101011e+04
1.0000101101110010100001011111011111110000101100001101e+04
1.0000101111010000011110010100001101100101011001101111e+04
1.0000110000101110011011001000111011011010000111010001e+04
1.0000110010001100010111111101101001001110110100110011e+04
1.0000110011101010010100110010010111000011100010010100e+04
1.0000110101001000010001100111000100111000001111110110e+04
1.0000110110100110001110011011110010101100111101011000e+04
1.0000111000000100001011010000100000100001101010111010e+04
1.0000111001100010001000000101001110010110011000011100e+04
1.0000111011000000000100111001111100001011000101111101e+04
1.0000111100011110000001101110101001111111110011011111e+04
1.0000111101111011111110100011010111110100100001000001e+04
1.0000111111011001111011011000000101101001001110100011e+04
1.0001000000110111111000001100110011011101111100000101e+04
1.0001000010010101110101000001100001010010101001100110e+04
1.0001000011110011110001110110001111000111010111001000e+04
1.0001000101010001101110101010111100111100000100101010e+04
1.0001000110101111101011011111101010110000110010001100e+04
1.0001001000001101101000010100011000100101011111101110e+04
1.0001001001101011100101001001000110011010001101001111e+04
1.0001001011001001100001111101110100001110111010110001e+04
1.0001001100100111011110110010100010000011101000010011e+04
1.0001001110000101011011100111001111111000010101110101e+04
1.0001001111100011011000011011111101101101000011010111e+04
1.0001010001000001010101010000101011100001110000111000e+04
1.0001010010011111010010000101011001010110011110011010e+04
1.0001010011111101001110111010000111001011001011111100e+04
1.0001010101011011001011101110110100111111111001011110e+04
1.0001010110111001001000100011100010110100100111000000e+04
1.0001011000010111000101011000010000101001010100100001e+04
1.0001011001110101000010001100111110011110000010000011e+04
1.0001011011010010111111000001101100010010101111100101e+04
1.0001011100110000111011110110011010000111011101000111e+04
1.0001011110001110111000101011000111111100001010101001e+04
1.0001011111101100110101011111110101110000111000001010e+04
1.0001100001001010110010010100100011100101100101101100e+04
1.0001100010101000101111001001010001011010010011001110e+04
1.0001100100000110101011111101111111001111000000110000e+04
1.0001100101100100101000110010101101000011101110010010e+04
1.0001100111000010100101100111011010111000011011110011e+04
1.0001101000100000100010011100001000101101001001010101e+04
1.0001101001111110011111010000110110100001110110110111e+04
1.0001101011011100011100000101100100010110100100011001e+04
1.0001101100111010011000111010010010001011010001111011e+04
1.0001101110011000010101101110111111111111111111011100e+04
1.0001101111110110010010100011101101110100101100111110e+04
1.0001110001010100001111011000011011101001011010100000e+04
1.0001110010110010001100001101001001011110001000000010e+04
1.0001110100010000001001000001110111010010110101100100e+04
1.0001110101101110000101110110100101000111100011000101e+04
1.0001110111001100000010101011010010111100010000100111e+04
1.0001111000101001111111100000000000110000111110001001e+04
1.0001111010000111111100010100101110100101101011101011e+04
1.0001111011100101111001001001011100011010011001001100e+04
1.0001111101000011110101111110001010001111000110101110e+04
1.0001111110100001110010110010111000000011110100010000e+04
1.0001111111111111101111100111100101111000100001110010e+04
1.0010000001011101101100011100010011101101001111010100e+04
1.0010000010111011101001010001000001100001111100110101e+04
1.0010000100011001100110000101101111010110101010010111e+04
1.0010000101110111100010111010011101001011010111111001e+04
1.0010000111010101011111101111001011000000000101011011e+04
1.0010001000110011011100100011111000110100110010111101e+04
1.0010001010010001011001011000100110101001100000011110e+04
1.0010001011101111010110001101010100011110001110000000e+04
1.0010001101001101010011000010000010010010111011100010e+04
1.0010001110101011001111110110110000000111101001000100e+04
1.0010010000001001001100101011011101111100010110100110e+04
1.0010010001100111001001100000001011110001000100000111e+04
1.0010010011000101000110010100111001100101110001101001e+04
1.0010010100100011000011001001100111011010011111001011e+04
1.0010010110000000111111111110010101001111001100101101e+04
1.0010010111011110111100110011000011000011111010001111e+04
1.0010011000111100111001100111110000111000100111110000e+04
1.0010011010011010110110011100011110101101010101010010e+04
1.0010011011111000110011010001001100100010000010110100e+04
1.0010011101010110110000000101111010010110110000010110e+04
1.0010011110110100101100111010101000001011011101111000e+04
1.0010100000010010101001101111010110000000001011011001e+04
1.0010100001110000100110100100000011110100111000111011e+04
1.0010100011001110100011011000110001101001100110011101e+04
1.0010100100101100100000001101011111011110010011111111e+04
1.0010100110001010011101000010001101010011000001100001e+04
1.0010100111101000011001110110111011000111101111000010e+04
1.0010101001000110010110101011101000111100011100100100e+04
1.0010101010100100010011100000010110110001001010000110e+04
1.0010101100000010010000010101000100100101110111101000e+04
1.0010101101100000001101001001110010011010100101001010e+04
1.0010101110111110001001111110100000001111010010101011e+04
1.0010110000011100000110110011001110000100000000001101e+04
1.0010110001111010000011100111111011111000101101101111e+04
1.0010110011011000000000011100101001101101011011010001e+04
1.0010110100110101111101010001010111100010001000110011e+04
1.0010110110010011111010000110000101010110110110010100e+04
1.0010110111110001110110111010110011001011100011110110e+04
1.0010111001001111110011101111100001000000010001011000e+04
1.0010111010101101110000100100001110110100111110111010e+04
1.0010111100001011101101011000111100101001101100011100e+04
1.0010111101101001101010001101101010011110011001111101e+04
1.0010111111000111100111000010011000010011000111011111e+04
1.0011000000100101100011110111000110000111110101000001e+04
1.0011000010000011100000101011110011111100100010100011e+04
1.0011000011100001011101100000100001110001010000000101e+04
1.0011000100111111011010010101001111100101111101100110e+04
1.0011000110011101010111001001111101011010101011001000e+04
1.0011000111111011010011111110101011001111011000101010e+04
1.0011001001011001010000110011011001000100000110001100e+04
1.0011001010110111001101101000000110111000110011101110e+04
1.0011001100010101001010011100110100101101100001001111e+04
1.0011001101110011000111010001100010100010001110110001e+04
1.0011001111010001000100000110010000010110111100010011e+04
1.0011010000101111000000111010111110001011101001110101e+04
1.0011100010011011110111010000110100001010010111001011e+04
1.0011100010101010110000110001111100010100010110111111e+04
1.0011100010111001101010010011000100011110010110110011e+04
1.0011100011001000100011110100001100101000010110101000e+04
1.0011100011010111011101010101010100110010010110011100e+04
1.0011100011100110010110110110011100111100010110010000e+04
1.0011100011110101010000010111100101000110010110000101e+04
1.0011100100000100001001111000101101010000010101111001e+04
1.0011100100010011000011011001110101011010010101101101e+04
1.0011100100100001111100111010111101100100010101100010e+04
1.0011100100110000110110011100000101101110010101010110e+04
1.0011100100111111101111111101001101111000010101001010e+04
1.0011100101001110101001011110010110000010010100111111e+04
1.0011100101011101100010111111011110001100010100110011e+04
1.0011100101101100011100100000100110010110010100100111e+04
1.0011100101111011010110000001101110100000010100011100e+04
1.0011100110001010001111100010110110101010010100010000e+04
1.0011100110011001001001000011111110110100010100000100e+04
1.0011100110101000000010100101000110111110010011111001e+04
1.0011100110110110111100000110001111001000010011101101e+04
1.0011100111000101110101100111010111010010010011100001e+04
1.0011100111010100101111001000011111011100010011010110e+04
1.0011100111100011101000101001100111100110010011001010e+04
1.0011100111110010100010001010101111110000010010111110e+04
1.0011101000000001011011101011110111111010010010110011e+04
1.0011101000010000010101001101000000000100010010100111e+04
1.0011101000011111001110101110001000001110010010011011e+04
1.0011101000101110001000001111010000011000010010001111e+04
1.0011101000111101000001110000011000100010010010000100e+04
1.0011101001001011111011010001100000101100010001111000e+04
1.0011101001011010110100110010101000110110010001101100e+04
1.0011101001101001101110010011110001000000010001100001e+04
1.0011101001111000100111110100111001001010010001010101e+04
1.0011101010000111100001010110000001010100010001001001e+04
1.0011101010010110011010110111001001011110010000111110e+04
1.0011101010100101010100011000010001101000010000110010e+04
1.0011101010110100001101111001011001110010010000100110e+04
1.0011101011000011000111011010100001111100010000011011e+04
1.0011101011010010000000111011101010000110010000001111e+04
1.0011101011100000111010011100110010010000010000000011e+04
1.0011101011101111110011111101111010011010001111111000e+04
1.0011101011111110101101011111000010100100001111101100e+04
1.0011101100001101100111000000001010101110001111100000e+04
1.0011101100011100100000100001010010111000001111010101e+04
1.0011101100101011011010000010011011000010001111001001e+04
1.0011101100111010010011100011100011001100001110111101e+04
1.0011101101001001001101000100101011010110001110110010e+04
1.0011101101011000000110100101110011100000001110100110e+04
1.0011101101100111000000000110111011101010001110011010e+04
1.0011101101110101111001101000000011110100001110001111e+04
1.0011101110000100110011001001001011111110001110000011e+04
1.0011101110010011101100101010010100001000001101110111e+04
1.0011101110100010100110001011011100010010001101101011e+04
1.0011101110110001011111101100100100011100001101100000e+04
1.0011101111000000011001001101101100100110001101010100e+04
1.0011101111001111010010101110110100110000001101001000e+04
1.0011101111011110001100001111111100111010001100111101e+04
1.0011101111101101000101110001000101000100001100110001e+04
1.0011101111111011111111010010001101001110001100100101e+04
1.0011110000001010111000110011010101011000001100011010e+04
1.0011110000011001110010010100011101100010001100001110e+04
1.0011110000101000101011110101100101101100001100000010e+04
1.0011110000110111100101010110101101110110001011110111e+04
1.0011110001000110011110110111110110000000001011101011e+04
1.0011110001010101011000011000111110001010001011011111e+04
1.0011110001100100010001111010000110010100001011010100e+04
1.0011110001110011001011011011001110011110001011001000e+04
1.0011110010000010000100111100010110101000001010111100e+04
1.0011110010010000111110011101011110110010001010110001e+04
1.0011110010011111110111111110100110111100001010100101e+04
1.0011110010101110110001011111101111000110001010011001e+04
1.0011110010111101101011000000110111010000001010001110e+04
1.0011110011001100100100100001111111011010001010000010e+04
1.0011110011011011011110000011000111100100001001110110e+04
1.0011110011101010010111100100001111101110001001101011e+04
1.0011110011111001010001000101010111111000001001011111e+04
1.0011110100001000001010100110100000000010001001010011e+04
1.0011110100010111000100000111101000001100001001000111e+04
1.0011110100100101111101101000110000010110001000111100e+04
1.0011110100110100110111001001111000100000001000110000e+04
1.0011110101000011110000101011000000101010001000100100e+04
1.0011110101010010101010001100001000110100001000011001e+04
1.0011110101100001100011101101010000111110001000001101e+04
1.0011110101110000011101001110011001001000001000000001e+04
1.0011110101111111010110101111100001010010000111110110e+04
1.0011110110001110010000010000101001011100000111101010e+04
1.0011110110011101001001110001110001100110000111011110e+04
1.0011110110101100000011010010111001110000000111010011e+04
1.0011110110111010111100110100000001111010000111000111e+04
1.0011110111001001110110010101001010000100000110111011e+04
1.0011110111011000101111110110010010001110000110110000e+04
1.0011110111100111101001010111011010011000000110100100e+04
1.0011110111110110100010111000100010100010000110011000e+04
1.0011111000000101011100011001101010101100000110001101e+04
1.0011111000010100010101111010110010110110000110000001e+04
1.0011111000100011001111011011111011000000000101110101e+04
1.0011111000110010001000111101000011001010000101101010e+04
1.0011111001000001000010011110001011010100000101011110e+04
1.0011111001001111111011111111010011011110000101010010e+04
1.0011111001011110110101100000011011101000000101000111e+04
1.0011111001101101101111000001100011110010000100111011e+04
1.0011111001111100101000100010101011111100000100101111e+04
1.0011111010001011100010000011110100000110000100100011e+04
1.0011111010011010011011100100111100010000000100011000e+04
1.0011111010101001010101000110000100011010000100001100e+04
1.0011111010111000001110100111001100100100000100000000e+04
1.0011111011000111001000001000010100101110000011110101e+04
1.0011111011010110000001101001011100111000000011101001e+04
1.0011111011100100111011001010100101000010000011011101e+04
1.0011111011110011110100101011101101001100000011010010e+04
1.0011111100000010101110001100110101010110000011000110e+04
1.0011111100010001100111101101111101100000000010111010e+04
1.0011111100100000100001001111000101101010000010101111e+04
1.0011111100101111011010110000001101110100000010100011e+04
1.0011111100111110010100010001010101111110000010010111e+04
1.0011111101001101001101110010011110001000000010001100e+04
1.0011111101011100000111010011100110010010000010000000e+04
1.0011111101101011000000110100101110011100000001110100e+04
1.0011111101111001111010010101110110100110000001101001e+04
1.0011111110001000110011110110111110110000000001011101e+04
1.0011111110010111101101011000000110111010000001010001e+04
1.0011111110100110100110111001001111000100000001000110e+04
1.0011111110110101100000011010010111001110000000111010e+04
1.0011111111000100011001111011011111011000000000101110e+04
1.0011111111010011010011011100100111100010000000100011e+04
1.0011111111100010001100111101101111101100000000010111e+04
1.0011111111110001000110011110110111110110000000001011e+04
1.0100000000000000000000000000000000000000000000000000e+04