1.1110110110011101011111110001100101100001000010001110e-06
1.1110110110011101011111110001100101100001000010001111e-05
1.0111001000110110000111110101001100001000110001101011e-04
1.1110110110011101011111110001100101100001000010001111e-04
1.0011010010000010011011110110111111011100101001011000e-03
1.0111001000110110000111110101001100001000110001101011e-03
1.1010111111101001110011110011011000110100111001111100e-03
1.1110110110011101011111110001100101100001000010001111e-03
1.0001010110101000100101110111111001000110100101010000e-02
1.0011010010000010011011110110111111011100101001011001e-02
1.0101001101011100010001110110000101110010101101100010e-02
1.0111001000110110000111110101001100001000110001101011e-02
1.1001000100001111111101110100010010011110110101110100e-02
1.1010111111101001110011110011011000110100111001111101e-02
1.1100111011000011101001110010011111001010111110000110e-02
1.1110110110011101011111110001100101100001000010001111e-02
1.0000011000111011101010111000010101111011100011001011e-01
1.0001010110101000100101110111111001000110100101010000e-01
1.0010010100010101100000110111011100010001100111010100e-01
1.0011010010000010011011110110111111011100101001011001e-01
1.0100001111101111010110110110100010100111101011011101e-01
1.0101001101011100010001110110000101110010101101100010e-01
1.0110001011001001001100110101101000111101101111100110e-01
1.0111001000110110000111110101001100001000110001101011e-01
1.1000000110100011000010110100101111010011110011101111e-01
1.1001000100001111111101110100010010011110110101110100e-01
1.1010000001111100111000110011110101101001110111111000e-01
1.1010111111101001110011110011011000110100111001111101e-01
1.1011111101010110101110110010111011111111111100000001e-01
1.1100111011000011101001110010011111001010111110000110e-01
1.1101111000110000100100110010000010010110000000001010e-01
1.1110110110011101011111110001100101100001000010001111e-01
1.1111110100001010011010110001001000101100000100010011e-01
1.0000011000111011101010111000010101111011100011001011e+00
1.0000110111110010001000011000000111100001000100001110e+00
1.0001010110101000100101110111111001000110100101010000e+00
1.0001110101011111000011010111101010101100000110010010e+00
1.0010010100010101100000110111011100010001100111010100e+00
1.0010110011001011111110010111001101110111001000010111e+00
1.0011010010000010011011110110111111011100101001011001e+00
1.0011110000111000111001010110110001000010001010011011e+00
1.0100001111101111010110110110100010100111101011011101e+00
1.0100101110100101110100010110010100001101001100100000e+00
1.0101001101011100010001110110000101110010101101100010e+00
1.0101101100010010101111010101110111011000001110100100e+00
1.0110001011001001001100110101101000111101101111100110e+00
1.0110101001111111101010010101011010100011010000101001e+00
1.0111001000110110000111110101001100001000110001101011e+00
1.0111100111101100100101010100111101101110010010101101e+00
1.1000000110100011000010110100101111010011110011101111e+00
1.1000100101011001100000010100100000111001010100110001e+00
1.1001000100001111111101110100010010011110110101110100e+00
1.1001100011000110011011010100000100000100010110110110e+00
1.1010000001111100111000110011110101101001110111111000e+00
1.1010100000110011010110010011100111001111011000111010e+00
1.1010111111101001110011110011011000110100111001111101e+00
1.1011011110100000010001010011001010011010011010111111e+00
1.1011111101010110101110110010111011111111111100000001e+00
1.1100011100001101001100010010101101100101011101000011e+00
1.1100111011000011101001110010011111001010111110000110e+00
1.1101011001111010000111010010010000110000011111001000e+00
1.1101111000110000100100110010000010010110000000001010e+00
1.1110010111100111000010010001110011111011100001001100e+00
1.1110110110011101011111110001100101100001000010001111e+00
1.1111010101010011111101010001010111000110100011010001e+00
1.1111110100001010011010110001001000101100000100010011e+00
1.0000001001100000011100001000011101001000110010101010e+01
1.0000011000111011101010111000010101111011100011001011e+01
1.0000101000010110111001101000001110101110010011101101e+01
1.0000110111110010001000011000000111100001000100001110e+01
1.0001000111001101010111001000000000010011110100101111e+01
1.0001010110101000100101110111111001000110100101010000e+01
1.0001100110000011110100100111110001111001010101110001e+01
1.0001110101011111000011010111101010101100000110010010e+01
1.0010000100111010010010000111100011011110110110110011e+01
1.0010010100010101100000110111011100010001100111010100e+01
1.0010100011110000101111100111010101000100010111110110e+01
1.0010110011001011111110010111001101110111001000010111e+01
1.0011000010100111001101000111000110101001111000111000e+01
1.0011010010000010011011110110111111011100101001011001e+01
1.0011100001011101101010100110111000001111011001111010e+01
1.0011110000111000111001010110110001000010001010011011e+01
1.0100000000010100001000000110101001110100111010111100e+01
1.0100001111101111010110110110100010100111101011011101e+01
1.0100011111001010100101100110011011011010011011111110e+01
1.0100101110100101110100010110010100001101001100100000e+01
1.0100111110000001000011000110001100111111111101000001e+01
1.0101001101011100010001110110000101110010101101100010e+01
1.0101011100110111100000100101111110100101011110000011e+01
1.0101101100010010101111010101110111011000001110100100e+01
1.0101111011101101111110000101110000001010111111000101e+01
1.0110001011001001001100110101101000111101101111100110e+01
1.0110011010100100011011100101100001110000100000000111e+01
1.0110101001111111101010010101011010100011010000101001e+01
1.0110111001011010111001000101010011010110000001001010e+01
1.0111001000110110000111110101001100001000110001101011e+01
1.0111011000010001010110100101000100111011100010001100e+01
1.0111100111101100100101010100111101101110010010101101e+01
1.0111110111000111110100000100110110100001000011001110e+01
1.1000000110100011000010110100101111010011110011101111e+01
1.1000010101111110010001100100101000000110100100010000e+01
1.1000100101011001100000010100100000111001010100110001e+01
1.1000110100110100101111000100011001101100000101010011e+01
1.1001000100001111111101110100010010011110110101110100e+01
1.1001010011101011001100100100001011010001100110010101e+01
1.1001100011000110011011010100000100000100010110110110e+01
1.1001110010100001101010000011111100110111000111010111e+01
1.1010000001111100111000110011110101101001110111111000e+01
1.1010010001011000000111100011101110011100101000011001e+01
1.1010100000110011010110010011100111001111011000111010e+01
1.1010110000001110100101000011100000000010001001011100e+01
1.1010111111101001110011110011011000110100111001111101e+01
1.1011001111000101000010100011010001100111101010011110e+01
1.1011011110100000010001010011001010011010011010111111e+01
1.1011101101111011100000000011000011001101001011100000e+01
1.1011111101010110101110110010111011111111111100000001e+01
1.1100001100110001111101100010110100110010101100100010e+01
1.1100011100001101001100010010101101100101011101000011e+01
1.1100101011101000011011000010100110011000001101100100e+01
1.1100111011000011101001110010011111001010111110000110e+01
1.1101001010011110111000100010010111111101101110100111e+01
1.1101011001111010000111010010010000110000011111001000e+01
1.1101101001010101010110000010001001100011001111101001e+01
1.1101111000110000100100110010000010010110000000001010e+01
1.1110001000001011110011100001111011001000110000101011e+01
1.1110010111100111000010010001110011111011100001001100e+01
1.1110100111000010010001000001101100101110010001101101e+01
1.1110110110011101011111110001100101100001000010001111e+01
1.1111000101111000101110100001011110010011110010110000e+01
1.1111010101010011111101010001010111000110100011010001e+01
1.1111100100101111001100000001001111111001010011110010e+01
1.1111110100001010011010110001001000101100000100010011e+01
1.0000000001110010110100110000100000101111011010011010e+02
1.0000001001100000011100001000011101001000110010101010e+02
1.0000010001001110000011100000011001100010001010111011e+02
1.0000011000111011101010111000010101111011100011001011e+02
1.0000100000101001010010010000010010010100111011011100e+02
1.0000101000010110111001101000001110101110010011101101e+02
1.0000110000000100100001000000001011000111101011111101e+02
1.0000110111110010001000011000000111100001000100001110e+02
1.0000111111011111101111110000000011111010011100011110e+02
1.0001000111001101010111001000000000010011110100101111e+02
1.0001001110111010111110011111111100101101001100111111e+02
1.0001010110101000100101110111111001000110100101010000e+02
1.0001011110010110001101001111110101011111111101100000e+02
1.0001100110000011110100100111110001111001010101110001e+02
1.0001101101110001011011111111101110010010101110000010e+02
1.0001110101011111000011010111101010101100000110010010e+02
1.0001111101001100101010101111100111000101011110100011e+02
1.0010000100111010010010000111100011011110110110110011e+02
1.0010001100100111111001011111011111111000001111000100e+02
1.0010010100010101100000110111011100010001100111010100e+02
1.0010011100000011001000001111011000101010111111100101e+02
1.0010100011110000101111100111010101000100010111110110e+02
1.0010101011011110010110111111010001011101110000000110e+02
1.0010110011001011111110010111001101110111001000010111e+02
1.0010111010111001100101101111001010010000100000100111e+02
1.0011000010100111001101000111000110101001111000111000e+02
1.0011001010010100110100011111000011000011010001001000e+02
1.0011010010000010011011110110111111011100101001011001e+02
1.0011011001110000000011001110111011110110000001101001e+02
1.0011100001011101101010100110111000001111011001111010e+02
1.0011101001001011010001111110110100101000110010001011e+02
1.0011110000111000111001010110110001000010001010011011e+02
1.0011111000100110100000101110101101011011100010101100e+02
1.0100000000010100001000000110101001110100111010111100e+02
1.0100001000000001101111011110100110001110010011001101e+02
1.0100001111101111010110110110100010100111101011011101e+02
1.0100010111011100111110001110011111000001000011101110e+02
1.0100011111001010100101100110011011011010011011111110e+02
1.0100100110111000001100111110010111110011110100001111e+02
1.0100101110100101110100010110010100001101001100100000e+02
1.0100110110010011011011101110010000100110100100110000e+02
1.0100111110000001000011000110001100111111111101000001e+02
1.0101000101101110101010011110001001011001010101010001e+02
1.0101001101011100010001110110000101110010101101100010e+02
1.0101010101001001111001001110000010001100000101110010e+02
1.0101011100110111100000100101111110100101011110000011e+02
1.0101100100100101000111111101111010111110110110010011e+02
1.0101101100010010101111010101110111011000001110100100e+02
1.0101110100000000010110101101110011110001100110110101e+02
1.0101111011101101111110000101110000001010111111000101e+02
1.0110000011011011100101011101101100100100010111010110e+02
1.0110001011001001001100110101101000111101101111100110e+02
1.0110010010110110110100001101100101010111000111110111e+02
1.0110011010100100011011100101100001110000100000000111e+02
1.0110100010010010000010111101011110001001111000011000e+02
1.0110101001111111101010010101011010100011010000101001e+02
1.0110110001101101010001101101010110111100101000111001e+02
1.0110111001011010111001000101010011010110000001001010e+02
1.0111000001001000100000011101001111101111011001011010e+02
1.0111001000110110000111110101001100001000110001101011e+02
1.0111010000100011101111001101001000100010001001111011e+02
1.0111011000010001010110100101000100111011100010001100e+02
1.0111011111111110111101111101000001010100111010011100e+02
1.0111100111101100100101010100111101101110010010101101e+02
1.0111101111011010001100101100111010000111101010111110e+02
1.0111110111000111110100000100110110100001000011001110e+02
1.0111111110110101011011011100110010111010011011011111e+02
1.1000000110100011000010110100101111010011110011101111e+02
1.1000001110010000101010001100101011101101001100000000e+02
1.1000010101111110010001100100101000000110100100010000e+02
1.1000011101101011111000111100100100011111111100100001e+02
1.1000100101011001100000010100100000111001010100110001e+02
1.1000101101000111000111101100011101010010101101000010e+02
1.1000110100110100101111000100011001101100000101010011e+02
1.1000111100100010010110011100010110000101011101100011e+02
1.1001000100001111111101110100010010011110110101110100e+02
1.1001001011111101100101001100001110111000001110000100e+02
1.1001010011101011001100100100001011010001100110010101e+02
1.1001011011011000110011111100000111101010111110100101e+02
1.1001100011000110011011010100000100000100010110110110e+02
1.1001101010110100000010101100000000011101101111000110e+02
1.1001110010100001101010000011111100110111000111010111e+02
1.1001111010001111010001011011111001010000011111101000e+02
1.1010000001111100111000110011110101101001110111111000e+02
1.1010001001101010100000001011110010000011010000001001e+02
1.1010010001011000000111100011101110011100101000011001e+02
1.1010011001000101101110111011101010110110000000101010e+02
1.1010100000110011010110010011100111001111011000111010e+02
1.1010101000100000111101101011100011101000110001001011e+02
1.1010110000001110100101000011100000000010001001011100e+02
1.1010110111111100001100011011011100011011100001101100e+02
1.1010111111101001110011110011011000110100111001111101e+02
1.1011000111010111011011001011010101001110010010001101e+02
1.1011001111000101000010100011010001100111101010011110e+02
1.1011010110110010101001111011001110000001000010101110e+02
1.1011011110100000010001010011001010011010011010111111e+02
1.1011100110001101111000101011000110110011110011001111e+02
1.1011101101111011100000000011000011001101001011100000e+02
1.1011110101101001000111011010111111100110100011110001e+02
1.1011111101010110101110110010111011111111111100000001e+02
1.1100000101000100010110001010111000011001010100010010e+02
1.1100001100110001111101100010110100110010101100100010e+02
1.1100010100011111100100111010110001001100000100110011e+02
1.1100011100001101001100010010101101100101011101000011e+02
1.1100100011111010110011101010101001111110110101010100e+02
1.1100101011101000011011000010100110011000001101100100e+02
1.1100110011010110000010011010100010110001100101110101e+02
1.1100111011000011101001110010011111001010111110000110e+02
1.1101000010110001010001001010011011100100010110010110e+02
1.1101001010011110111000100010010111111101101110100111e+02
1.1101010010001100011111111010010100010111000110110111e+02
1.1101011001111010000111010010010000110000011111001000e+02
1.1101100001100111101110101010001101001001110111011000e+02
1.1101101001010101010110000010001001100011001111101001e+02
1.1101110001000010111101011010000101111100100111111001e+02
1.1101111000110000100100110010000010010110000000001010e+02
1.1110000000011110001100001001111110101111011000011011e+02
1.1110001000001011110011100001111011001000110000101011e+02
1.1110001111111001011010111001110111100010001000111100e+02
1.1110010111100111000010010001110011111011100001001100e+02
1.1110011111010100101001101001110000010100111001011101e+02
1.1110100111000010010001000001101100101110010001101101e+02
1.1110101110101111111000011001101001000111101001111110e+02