1.1000101011010101110110000111100001001101000101010100e+03
1.1000101011010101110110000111100001001101000101010101e+03
1.1000101011010101110110000111100001001101000101010110e+03
1.0010111110101110101000001101101110111001100101111000e+04
1.0010111110101110101000001101101110111001100101111001e+04
1.0010111110101110101000001101101110111001100101111010e+04
1.1111110011111100110010101010110011110110011011000001e+04
1.1111110011111100110010101010110011110110011011000010e+04
1.1111110011111100110010101010110011110110011011000011e+04
1.1111110011111100110010101010110011110110011011000001e+04
1.1111110011111100110010101010110011110110011011000010e+04
1.1111110011111100110010101010110011110110011011000011e+04
1.1100100011110000001111000111000011010010010100110001e+05
1.1100100011110000001111000111000011010010010100110010e+05
1.1100100011110000001111000111000011010010010100110011e+05
1.1010110111110000000001101000001000100101110010101101e+06
1.1010110111110000000001101000001000100101110010101110e+06
1.1010110111110000000001101000001000100101110010101111e+06
1.1010000000100100010111101101110111001110011010011001e+07
1.1010000000100100010111101101110111001110011010011010e+07
1.1010000000100100010111101101110111001110011010011011e+07
1.1001100100101001100001011101000011011101100100110110e+08
1.1001100100101001100001011101000011011101100100110111e+08
1.1001100100101001100001011101000011011101100100111000e+08
1.1001010110100110100010001100101000001010110000001011e+09
1.1001010110100110100010001100101000001010110000001100e+09
1.1001010110100110100010001100101000001010110000001101e+09
1.1001001111100011100110110111000000110111110011110011e+10
1.1001001111100011100110110111000000110111110011110100e+10
1.1001001111100011100110110111000000110111110011110101e+10
1.1001001100000001110001111010100010100111011010100101e+11
1.1001001100000001110001111010100010100111011010100110e+11
1.1001001100000001110001111010100010100111011010100111e+11
1.1001001010010000110001100101000010100100101110001000e+12
1.1001001010010000110001100101000010100100101110001001e+12
1.1001001010010000110001100101000010100100101110001010e+12
1.1001001001011000001111111100000111010011010101101101e+13
1.1001001001011000001111111100000111010011010101101110e+13
1.1001001001011000001111111100000111010011010101101111e+13
1.1001001000111011111110110000000011111101011111101010e+14
1.1001001000111011111110110000000011111101011111101011e+14
1.1001001000111011111110110000000011111101011111101100e+14
1.1001001000101101110110000100001000100000000101000111e+15
1.1001001000101101110110000100001000100000000101001000e+15
1.1001001000101101110110000100001000100000000101001001e+15
1.1001001000100110110001101100101100010001110110000110e+16
1.1001001000100110110001101100101100010001110110000111e+16
1.1001001000100110110001101100101100010001110110001000e+16
1.1001001000100011001111100000100110100010011110111001e+17
1.1001001000100011001111100000100110100010011110111010e+17
1.1001001000100011001111100000100110100010011110111011e+17
1.1001001000100001011110011010011101110000101100011101e+18
1.1001001000100001011110011010011101110000101100011110e+18
1.1001001000100001011110011010011101110000101100011111e+18
1.1001001000100000100101110111010111111001010001001011e+19
1.1001001000100000100101110111010111111001010001001100e+19
1.1001001000100000100101110111010111111001010001001101e+19
1.1001001000100000001001100101110100100101111010111110e+20
1.1001001000100000001001100101110100100101111010111111e+20
1.1001001000100000001001100101110100100101111011000000e+20
1.1001001000011111111011011101000010110110010101101110e+21
1.1001001000011111111011011101000010110110010101101111e+21
1.1001001000011111111011011101000010110110010101110000e+21
1.1001001000011111110100011000101001111101000100100011e+22
1.1001001000011111110100011000101001111101000100100100e+22
1.1001001000011111110100011000101001111101000100100101e+22
1.1001001000011111110000110110011101100000000100010101e+23
1.1001001000011111110000110110011101100000000100010110e+23
1.1001001000011111110000110110011101100000000100010111e+23
1.1001001000011111101111000101010111010001011110010100e+24
1.1001001000011111101111000101010111010001011110010101e+24
1.1001001000011111101111000101010111010001011110010110e+24
1.1001001000011111101110001100110100001010001001110101e+25
1.1001001000011111101110001100110100001010001001110110e+25
1.1001001000011111101110001100110100001010001001110111e+25
1.1001001000011111101101110000100010100110011111001110e+26
1.1001001000011111101101110000100010100110011111001111e+26
1.1001001000011111101101110000100010100110011111010000e+26
1.1001001000011111101101100010011001110100101001110101e+27
1.1001001000011111101101100010011001110100101001110110e+27
1.1001001000011111101101100010011001110100101001110111e+27
1.1001001000011111101101011011010101011011101111000110e+28
1.1001001000011111101101011011010101011011101111000111e+28
1.1001001000011111101101011011010101011011101111001000e+28
1.1001001000011111101101010111110011001111010001101111e+29
1.1001001000011111101101010111110011001111010001110000e+29
1.1001001000011111101101010111110011001111010001110001e+29
1.1001001000011111101101010110000010001001000011000011e+30
1.1001001000011111101101010110000010001001000011000100e+30
1.1001001000011111101101010110000010001001000011000101e+30
1.1001001000011111101101010101001001100101111011101101e+31
1.1001001000011111101101010101001001100101111011101110e+31
1.1001001000011111101101010101001001100101111011101111e+31
1.1001001000011111101101010100101101010100011000000010e+32
1.1001001000011111101101010100101101010100011000000011e+32
1.1001001000011111101101010100101101010100011000000100e+32
1.1001001000011111101101010100011111001011100110001101e+33
1.1001001000011111101101010100011111001011100110001110e+33
1.1001001000011111101101010100011111001011100110001111e+33
1.1001001000011111101101010100011000000111001101010010e+34
1.1001001000011111101101010100011000000111001101010011e+34
1.1001001000011111101101010100011000000111001101010100e+34
1.1001001000011111101101010100010100100101000000110101e+35
1.1001001000011111101101010100010100100101000000110110e+35
1.1001001000011111101101010100010100100101000000110111e+35
1.1001001000011111101101010100010010110011111010100110e+36
1.1001001000011111101101010100010010110011111010100111e+36
1.1001001000011111101101010100010010110011111010101000e+36
1.1001001000011111101101010100010001111011010111011111e+37
1.1001001000011111101101010100010001111011010111100000e+37
1.1001001000011111101101010100010001111011010111100001e+37
1.1001001000011111101101010100010001011111000101111011e+38
1.1001001000011111101101010100010001011111000101111100e+38
1.1001001000011111101101010100010001011111000101111101e+38
1.1001001000011111101101010100010001010000111101001001e+39
1.1001001000011111101101010100010001010000111101001010e+39
1.1001001000011111101101010100010001010000111101001011e+39
1.1001001000011111101101010100010001001001111000110000e+40
1.1001001000011111101101010100010001001001111000110001e+40
1.1001001000011111101101010100010001001001111000110010e+40
1.1001001000011111101101010100010001000110010110100100e+41
1.1001001000011111101101010100010001000110010110100101e+41
1.1001001000011111101101010100010001000110010110100110e+41
1.1001001000011111101101010100010001000100100101011110e+42
1.1001001000011111101101010100010001000100100101011111e+42
1.1001001000011111101101010100010001000100100101100000e+42
1.1001001000011111101101010100010001000011101100111010e+43
1.1001001000011111101101010100010001000011101100111011e+43
1.1001001000011111101101010100010001000011101100111100e+43
1.1001001000011111101101010100010001000011010000101001e+44
1.1001001000011111101101010100010001000011010000101010e+44
1.1001001000011111101101010100010001000011010000101011e+44
1.1001001000011111101101010100010001000011000010100000e+45
1.1001001000011111101101010100010001000011000010100001e+45
1.1001001000011111101101010100010001000011000010100010e+45
1.1001001000011111101101010100010001000010111011011100e+46
1.1001001000011111101101010100010001000010111011011101e+46
1.1001001000011111101101010100010001000010111011011110e+46
1.1001001000011111101101010100010001000010110111111001e+47
1.1001001000011111101101010100010001000010110111111010e+47
1.1001001000011111101101010100010001000010110111111011e+47
1.1001001000011111101101010100010001000010110110001000e+48
1.1001001000011111101101010100010001000010110110001001e+48
1.1001001000011111101101010100010001000010110110001010e+48